-- Merging decision tree log ---
manifest
ADDED from D:\AndroidStudioProjects\activitychallenge\wear\src\main\AndroidManifest.xml:1:1-14:12
INJECTED from D:\AndroidStudioProjects\activitychallenge\wear\src\main\AndroidManifest.xml:1:1-14:12
INJECTED from D:\AndroidStudioProjects\activitychallenge\wear\src\main\AndroidManifest.xml:1:1-14:12
INJECTED from D:\AndroidStudioProjects\activitychallenge\wear\src\main\AndroidManifest.xml:1:1-14:12
MERGED from [com.google.android.support:wearable:2.1.0] C:\Users\administator\.gradle\caches\transforms-1\files-1.1\wearable-2.1.0.aar\49e49044fc4b8eb4a9dcc3f5f9608255\AndroidManifest.xml:2:1-15:12
MERGED from [com.google.android.gms:play-services-wearable:11.8.0] C:\Users\administator\.gradle\caches\transforms-1\files-1.1\play-services-wearable-11.8.0.aar\b96b839b89028a1031f87cd8f13b2266\AndroidManifest.xml:17:1-24:12
MERGED from [com.android.support:percent:26.1.0] C:\Users\administator\.gradle\caches\transforms-1\files-1.1\percent-26.1.0.aar\19def665ef15d289553e6448d68f02e7\AndroidManifest.xml:17:1-28:12
MERGED from [com.google.android.gms:play-services-base:11.8.0] C:\Users\administator\.gradle\caches\transforms-1\files-1.1\play-services-base-11.8.0.aar\692ed1e308135aa6452b864be95456f9\AndroidManifest.xml:17:1-29:12
MERGED from [com.google.android.gms:play-services-tasks:11.8.0] C:\Users\administator\.gradle\caches\transforms-1\files-1.1\play-services-tasks-11.8.0.aar\eb47b6bae68029113182db41fd77c8cc\AndroidManifest.xml:2:1-9:12
MERGED from [com.google.android.gms:play-services-basement:11.8.0] C:\Users\administator\.gradle\caches\transforms-1\files-1.1\play-services-basement-11.8.0.aar\b10938a533c74afb2f29764e3db66ba0\AndroidManifest.xml:17:1-28:12
MERGED from [com.android.support:support-v4:26.1.0] C:\Users\administator\.gradle\caches\transforms-1\files-1.1\support-v4-26.1.0.aar\4e5c151bffd246f71aedc58045a69e8d\AndroidManifest.xml:17:1-31:12
MERGED from [com.android.support:recyclerview-v7:26.1.0] C:\Users\administator\.gradle\caches\transforms-1\files-1.1\recyclerview-v7-26.1.0.aar\0d45e42c0db244dadff840e070e99dad\AndroidManifest.xml:17:1-28:12
MERGED from [com.android.support:support-media-compat:26.1.0] C:\Users\administator\.gradle\caches\transforms-1\files-1.1\support-media-compat-26.1.0.aar\c47d4ec78164e1356a95b1793ca9c164\AndroidManifest.xml:17:1-31:12
MERGED from [com.android.support:support-fragment:26.1.0] C:\Users\administator\.gradle\caches\transforms-1\files-1.1\support-fragment-26.1.0.aar\1e52a760e910927a8df52816002a640d\AndroidManifest.xml:17:1-31:12
MERGED from [com.android.support:support-core-utils:26.1.0] C:\Users\administator\.gradle\caches\transforms-1\files-1.1\support-core-utils-26.1.0.aar\4c9750116958b0fa951922aee220f9e6\AndroidManifest.xml:17:1-31:12
MERGED from [com.android.support:support-core-ui:26.1.0] C:\Users\administator\.gradle\caches\transforms-1\files-1.1\support-core-ui-26.1.0.aar\7c575f8c60e56ddcf2a6debff41fe289\AndroidManifest.xml:17:1-31:12
MERGED from [com.android.support:support-compat:26.1.0] C:\Users\administator\.gradle\caches\transforms-1\files-1.1\support-compat-26.1.0.aar\da5d8dbb046093bedc9f0190962d5065\AndroidManifest.xml:17:1-31:12
MERGED from [com.google.android.gms:play-services-wearable-license:11.8.0] C:\Users\administator\.gradle\caches\transforms-1\files-1.1\play-services-wearable-license-11.8.0.aar\d3077d2f038cc962d3cdb4096b50b854\AndroidManifest.xml:2:1-6:12
MERGED from [com.google.android.gms:play-services-base-license:11.8.0] C:\Users\administator\.gradle\caches\transforms-1\files-1.1\play-services-base-license-11.8.0.aar\4bd4a1666fb94319a5de893e4df0b9b2\AndroidManifest.xml:2:1-6:12
MERGED from [com.google.android.gms:play-services-basement-license:11.8.0] C:\Users\administator\.gradle\caches\transforms-1\files-1.1\play-services-basement-license-11.8.0.aar\d2ae34d9db1e45290e09f1fb69c22ced\AndroidManifest.xml:2:1-6:12
MERGED from [com.google.android.gms:play-services-tasks-license:11.8.0] C:\Users\administator\.gradle\caches\transforms-1\files-1.1\play-services-tasks-license-11.8.0.aar\84c513587f05c0843f37206a50c6e7bd\AndroidManifest.xml:2:1-6:12
MERGED from [android.arch.lifecycle:runtime:1.0.0] C:\Users\administator\.gradle\caches\transforms-1\files-1.1\runtime-1.0.0.aar\a4d2101543e0a825f3d8a9e723300938\AndroidManifest.xml:17:1-30:12
INJECTED from D:\AndroidStudioProjects\activitychallenge\wear\src\main\AndroidManifest.xml:1:1-14:12
INJECTED from D:\AndroidStudioProjects\activitychallenge\wear\src\main\AndroidManifest.xml:1:1-14:12
INJECTED from D:\AndroidStudioProjects\activitychallenge\wear\src\main\AndroidManifest.xml:1:1-14:12
	package
		ADDED from D:\AndroidStudioProjects\activitychallenge\wear\src\main\AndroidManifest.xml:2:5-31
		INJECTED from D:\AndroidStudioProjects\activitychallenge\wear\src\main\AndroidManifest.xml
		INJECTED from D:\AndroidStudioProjects\activitychallenge\wear\src\main\AndroidManifest.xml
	android:versionName
		INJECTED from D:\AndroidStudioProjects\activitychallenge\wear\src\main\AndroidManifest.xml
		ADDED from D:\AndroidStudioProjects\activitychallenge\wear\src\main\AndroidManifest.xml:1:1-14:12
		INJECTED from D:\AndroidStudioProjects\activitychallenge\wear\src\main\AndroidManifest.xml
	android:versionCode
		INJECTED from D:\AndroidStudioProjects\activitychallenge\wear\src\main\AndroidManifest.xml
		ADDED from D:\AndroidStudioProjects\activitychallenge\wear\src\main\AndroidManifest.xml:1:1-14:12
		INJECTED from D:\AndroidStudioProjects\activitychallenge\wear\src\main\AndroidManifest.xml
	xmlns:android
		ADDED from D:\AndroidStudioProjects\activitychallenge\wear\src\main\AndroidManifest.xml:1:11-69
uses-feature#android.hardware.type.watch
ADDED from D:\AndroidStudioProjects\activitychallenge\wear\src\main\AndroidManifest.xml:4:5-64
	android:name
		ADDED from D:\AndroidStudioProjects\activitychallenge\wear\src\main\AndroidManifest.xml:4:19-61
application
ADDED from D:\AndroidStudioProjects\activitychallenge\wear\src\main\AndroidManifest.xml:5:5-12:19
MERGED from [com.google.android.support:wearable:2.1.0] C:\Users\administator\.gradle\caches\transforms-1\files-1.1\wearable-2.1.0.aar\49e49044fc4b8eb4a9dcc3f5f9608255\AndroidManifest.xml:9:5-13:19
MERGED from [com.google.android.support:wearable:2.1.0] C:\Users\administator\.gradle\caches\transforms-1\files-1.1\wearable-2.1.0.aar\49e49044fc4b8eb4a9dcc3f5f9608255\AndroidManifest.xml:9:5-13:19
MERGED from [com.google.android.gms:play-services-wearable:11.8.0] C:\Users\administator\.gradle\caches\transforms-1\files-1.1\play-services-wearable-11.8.0.aar\b96b839b89028a1031f87cd8f13b2266\AndroidManifest.xml:22:5-20
MERGED from [com.google.android.gms:play-services-wearable:11.8.0] C:\Users\administator\.gradle\caches\transforms-1\files-1.1\play-services-wearable-11.8.0.aar\b96b839b89028a1031f87cd8f13b2266\AndroidManifest.xml:22:5-20
MERGED from [com.android.support:percent:26.1.0] C:\Users\administator\.gradle\caches\transforms-1\files-1.1\percent-26.1.0.aar\19def665ef15d289553e6448d68f02e7\AndroidManifest.xml:22:5-26:19
MERGED from [com.android.support:percent:26.1.0] C:\Users\administator\.gradle\caches\transforms-1\files-1.1\percent-26.1.0.aar\19def665ef15d289553e6448d68f02e7\AndroidManifest.xml:22:5-26:19
MERGED from [com.google.android.gms:play-services-base:11.8.0] C:\Users\administator\.gradle\caches\transforms-1\files-1.1\play-services-base-11.8.0.aar\692ed1e308135aa6452b864be95456f9\AndroidManifest.xml:22:5-27:19
MERGED from [com.google.android.gms:play-services-base:11.8.0] C:\Users\administator\.gradle\caches\transforms-1\files-1.1\play-services-base-11.8.0.aar\692ed1e308135aa6452b864be95456f9\AndroidManifest.xml:22:5-27:19
MERGED from [com.google.android.gms:play-services-tasks:11.8.0] C:\Users\administator\.gradle\caches\transforms-1\files-1.1\play-services-tasks-11.8.0.aar\eb47b6bae68029113182db41fd77c8cc\AndroidManifest.xml:7:5-20
MERGED from [com.google.android.gms:play-services-tasks:11.8.0] C:\Users\administator\.gradle\caches\transforms-1\files-1.1\play-services-tasks-11.8.0.aar\eb47b6bae68029113182db41fd77c8cc\AndroidManifest.xml:7:5-20
MERGED from [com.google.android.gms:play-services-basement:11.8.0] C:\Users\administator\.gradle\caches\transforms-1\files-1.1\play-services-basement-11.8.0.aar\b10938a533c74afb2f29764e3db66ba0\AndroidManifest.xml:22:5-26:19
MERGED from [com.google.android.gms:play-services-basement:11.8.0] C:\Users\administator\.gradle\caches\transforms-1\files-1.1\play-services-basement-11.8.0.aar\b10938a533c74afb2f29764e3db66ba0\AndroidManifest.xml:22:5-26:19
MERGED from [com.android.support:support-v4:26.1.0] C:\Users\administator\.gradle\caches\transforms-1\files-1.1\support-v4-26.1.0.aar\4e5c151bffd246f71aedc58045a69e8d\AndroidManifest.xml:25:5-29:19
MERGED from [com.android.support:support-v4:26.1.0] C:\Users\administator\.gradle\caches\transforms-1\files-1.1\support-v4-26.1.0.aar\4e5c151bffd246f71aedc58045a69e8d\AndroidManifest.xml:25:5-29:19
MERGED from [com.android.support:recyclerview-v7:26.1.0] C:\Users\administator\.gradle\caches\transforms-1\files-1.1\recyclerview-v7-26.1.0.aar\0d45e42c0db244dadff840e070e99dad\AndroidManifest.xml:22:5-26:19
MERGED from [com.android.support:recyclerview-v7:26.1.0] C:\Users\administator\.gradle\caches\transforms-1\files-1.1\recyclerview-v7-26.1.0.aar\0d45e42c0db244dadff840e070e99dad\AndroidManifest.xml:22:5-26:19
MERGED from [com.android.support:support-media-compat:26.1.0] C:\Users\administator\.gradle\caches\transforms-1\files-1.1\support-media-compat-26.1.0.aar\c47d4ec78164e1356a95b1793ca9c164\AndroidManifest.xml:25:5-29:19
MERGED from [com.android.support:support-media-compat:26.1.0] C:\Users\administator\.gradle\caches\transforms-1\files-1.1\support-media-compat-26.1.0.aar\c47d4ec78164e1356a95b1793ca9c164\AndroidManifest.xml:25:5-29:19
MERGED from [com.android.support:support-fragment:26.1.0] C:\Users\administator\.gradle\caches\transforms-1\files-1.1\support-fragment-26.1.0.aar\1e52a760e910927a8df52816002a640d\AndroidManifest.xml:25:5-29:19
MERGED from [com.android.support:support-fragment:26.1.0] C:\Users\administator\.gradle\caches\transforms-1\files-1.1\support-fragment-26.1.0.aar\1e52a760e910927a8df52816002a640d\AndroidManifest.xml:25:5-29:19
MERGED from [com.android.support:support-core-utils:26.1.0] C:\Users\administator\.gradle\caches\transforms-1\files-1.1\support-core-utils-26.1.0.aar\4c9750116958b0fa951922aee220f9e6\AndroidManifest.xml:25:5-29:19
MERGED from [com.android.support:support-core-utils:26.1.0] C:\Users\administator\.gradle\caches\transforms-1\files-1.1\support-core-utils-26.1.0.aar\4c9750116958b0fa951922aee220f9e6\AndroidManifest.xml:25:5-29:19
MERGED from [com.android.support:support-core-ui:26.1.0] C:\Users\administator\.gradle\caches\transforms-1\files-1.1\support-core-ui-26.1.0.aar\7c575f8c60e56ddcf2a6debff41fe289\AndroidManifest.xml:25:5-29:19
MERGED from [com.android.support:support-core-ui:26.1.0] C:\Users\administator\.gradle\caches\transforms-1\files-1.1\support-core-ui-26.1.0.aar\7c575f8c60e56ddcf2a6debff41fe289\AndroidManifest.xml:25:5-29:19
MERGED from [com.android.support:support-compat:26.1.0] C:\Users\administator\.gradle\caches\transforms-1\files-1.1\support-compat-26.1.0.aar\da5d8dbb046093bedc9f0190962d5065\AndroidManifest.xml:25:5-29:19
MERGED from [com.android.support:support-compat:26.1.0] C:\Users\administator\.gradle\caches\transforms-1\files-1.1\support-compat-26.1.0.aar\da5d8dbb046093bedc9f0190962d5065\AndroidManifest.xml:25:5-29:19
MERGED from [com.google.android.gms:play-services-wearable-license:11.8.0] C:\Users\administator\.gradle\caches\transforms-1\files-1.1\play-services-wearable-license-11.8.0.aar\d3077d2f038cc962d3cdb4096b50b854\AndroidManifest.xml:5:5-20
MERGED from [com.google.android.gms:play-services-wearable-license:11.8.0] C:\Users\administator\.gradle\caches\transforms-1\files-1.1\play-services-wearable-license-11.8.0.aar\d3077d2f038cc962d3cdb4096b50b854\AndroidManifest.xml:5:5-20
MERGED from [com.google.android.gms:play-services-base-license:11.8.0] C:\Users\administator\.gradle\caches\transforms-1\files-1.1\play-services-base-license-11.8.0.aar\4bd4a1666fb94319a5de893e4df0b9b2\AndroidManifest.xml:5:5-20
MERGED from [com.google.android.gms:play-services-base-license:11.8.0] C:\Users\administator\.gradle\caches\transforms-1\files-1.1\play-services-base-license-11.8.0.aar\4bd4a1666fb94319a5de893e4df0b9b2\AndroidManifest.xml:5:5-20
MERGED from [com.google.android.gms:play-services-basement-license:11.8.0] C:\Users\administator\.gradle\caches\transforms-1\files-1.1\play-services-basement-license-11.8.0.aar\d2ae34d9db1e45290e09f1fb69c22ced\AndroidManifest.xml:5:5-20
MERGED from [com.google.android.gms:play-services-basement-license:11.8.0] C:\Users\administator\.gradle\caches\transforms-1\files-1.1\play-services-basement-license-11.8.0.aar\d2ae34d9db1e45290e09f1fb69c22ced\AndroidManifest.xml:5:5-20
MERGED from [com.google.android.gms:play-services-tasks-license:11.8.0] C:\Users\administator\.gradle\caches\transforms-1\files-1.1\play-services-tasks-license-11.8.0.aar\84c513587f05c0843f37206a50c6e7bd\AndroidManifest.xml:5:5-20
MERGED from [com.google.android.gms:play-services-tasks-license:11.8.0] C:\Users\administator\.gradle\caches\transforms-1\files-1.1\play-services-tasks-license-11.8.0.aar\84c513587f05c0843f37206a50c6e7bd\AndroidManifest.xml:5:5-20
MERGED from [android.arch.lifecycle:runtime:1.0.0] C:\Users\administator\.gradle\caches\transforms-1\files-1.1\runtime-1.0.0.aar\a4d2101543e0a825f3d8a9e723300938\AndroidManifest.xml:24:5-28:19
MERGED from [android.arch.lifecycle:runtime:1.0.0] C:\Users\administator\.gradle\caches\transforms-1\files-1.1\runtime-1.0.0.aar\a4d2101543e0a825f3d8a9e723300938\AndroidManifest.xml:24:5-28:19
	android:supportsRtl
		ADDED from D:\AndroidStudioProjects\activitychallenge\wear\src\main\AndroidManifest.xml:9:9-35
	android:label
		ADDED from D:\AndroidStudioProjects\activitychallenge\wear\src\main\AndroidManifest.xml:8:9-41
	android:icon
		ADDED from D:\AndroidStudioProjects\activitychallenge\wear\src\main\AndroidManifest.xml:7:9-43
	android:allowBackup
		ADDED from D:\AndroidStudioProjects\activitychallenge\wear\src\main\AndroidManifest.xml:6:9-35
	android:theme
		ADDED from D:\AndroidStudioProjects\activitychallenge\wear\src\main\AndroidManifest.xml:10:9-59
uses-sdk
INJECTED from D:\AndroidStudioProjects\activitychallenge\wear\src\main\AndroidManifest.xml reason: use-sdk injection requested
INJECTED from D:\AndroidStudioProjects\activitychallenge\wear\src\main\AndroidManifest.xml
INJECTED from D:\AndroidStudioProjects\activitychallenge\wear\src\main\AndroidManifest.xml
MERGED from [com.google.android.support:wearable:2.1.0] C:\Users\administator\.gradle\caches\transforms-1\files-1.1\wearable-2.1.0.aar\49e49044fc4b8eb4a9dcc3f5f9608255\AndroidManifest.xml:5:5-7:41
MERGED from [com.google.android.support:wearable:2.1.0] C:\Users\administator\.gradle\caches\transforms-1\files-1.1\wearable-2.1.0.aar\49e49044fc4b8eb4a9dcc3f5f9608255\AndroidManifest.xml:5:5-7:41
MERGED from [com.google.android.gms:play-services-wearable:11.8.0] C:\Users\administator\.gradle\caches\transforms-1\files-1.1\play-services-wearable-11.8.0.aar\b96b839b89028a1031f87cd8f13b2266\AndroidManifest.xml:20:5-44
MERGED from [com.google.android.gms:play-services-wearable:11.8.0] C:\Users\administator\.gradle\caches\transforms-1\files-1.1\play-services-wearable-11.8.0.aar\b96b839b89028a1031f87cd8f13b2266\AndroidManifest.xml:20:5-44
MERGED from [com.android.support:percent:26.1.0] C:\Users\administator\.gradle\caches\transforms-1\files-1.1\percent-26.1.0.aar\19def665ef15d289553e6448d68f02e7\AndroidManifest.xml:20:5-44
MERGED from [com.android.support:percent:26.1.0] C:\Users\administator\.gradle\caches\transforms-1\files-1.1\percent-26.1.0.aar\19def665ef15d289553e6448d68f02e7\AndroidManifest.xml:20:5-44
MERGED from [com.google.android.gms:play-services-base:11.8.0] C:\Users\administator\.gradle\caches\transforms-1\files-1.1\play-services-base-11.8.0.aar\692ed1e308135aa6452b864be95456f9\AndroidManifest.xml:20:5-44
MERGED from [com.google.android.gms:play-services-base:11.8.0] C:\Users\administator\.gradle\caches\transforms-1\files-1.1\play-services-base-11.8.0.aar\692ed1e308135aa6452b864be95456f9\AndroidManifest.xml:20:5-44
MERGED from [com.google.android.gms:play-services-tasks:11.8.0] C:\Users\administator\.gradle\caches\transforms-1\files-1.1\play-services-tasks-11.8.0.aar\eb47b6bae68029113182db41fd77c8cc\AndroidManifest.xml:5:5-44
MERGED from [com.google.android.gms:play-services-tasks:11.8.0] C:\Users\administator\.gradle\caches\transforms-1\files-1.1\play-services-tasks-11.8.0.aar\eb47b6bae68029113182db41fd77c8cc\AndroidManifest.xml:5:5-44
MERGED from [com.google.android.gms:play-services-basement:11.8.0] C:\Users\administator\.gradle\caches\transforms-1\files-1.1\play-services-basement-11.8.0.aar\b10938a533c74afb2f29764e3db66ba0\AndroidManifest.xml:20:5-44
MERGED from [com.google.android.gms:play-services-basement:11.8.0] C:\Users\administator\.gradle\caches\transforms-1\files-1.1\play-services-basement-11.8.0.aar\b10938a533c74afb2f29764e3db66ba0\AndroidManifest.xml:20:5-44
MERGED from [com.android.support:support-v4:26.1.0] C:\Users\administator\.gradle\caches\transforms-1\files-1.1\support-v4-26.1.0.aar\4e5c151bffd246f71aedc58045a69e8d\AndroidManifest.xml:21:5-23:54
MERGED from [com.android.support:support-v4:26.1.0] C:\Users\administator\.gradle\caches\transforms-1\files-1.1\support-v4-26.1.0.aar\4e5c151bffd246f71aedc58045a69e8d\AndroidManifest.xml:21:5-23:54
MERGED from [com.android.support:recyclerview-v7:26.1.0] C:\Users\administator\.gradle\caches\transforms-1\files-1.1\recyclerview-v7-26.1.0.aar\0d45e42c0db244dadff840e070e99dad\AndroidManifest.xml:20:5-44
MERGED from [com.android.support:recyclerview-v7:26.1.0] C:\Users\administator\.gradle\caches\transforms-1\files-1.1\recyclerview-v7-26.1.0.aar\0d45e42c0db244dadff840e070e99dad\AndroidManifest.xml:20:5-44
MERGED from [com.android.support:support-media-compat:26.1.0] C:\Users\administator\.gradle\caches\transforms-1\files-1.1\support-media-compat-26.1.0.aar\c47d4ec78164e1356a95b1793ca9c164\AndroidManifest.xml:21:5-23:63
MERGED from [com.android.support:support-media-compat:26.1.0] C:\Users\administator\.gradle\caches\transforms-1\files-1.1\support-media-compat-26.1.0.aar\c47d4ec78164e1356a95b1793ca9c164\AndroidManifest.xml:21:5-23:63
MERGED from [com.android.support:support-fragment:26.1.0] C:\Users\administator\.gradle\caches\transforms-1\files-1.1\support-fragment-26.1.0.aar\1e52a760e910927a8df52816002a640d\AndroidManifest.xml:21:5-23:60
MERGED from [com.android.support:support-fragment:26.1.0] C:\Users\administator\.gradle\caches\transforms-1\files-1.1\support-fragment-26.1.0.aar\1e52a760e910927a8df52816002a640d\AndroidManifest.xml:21:5-23:60
MERGED from [com.android.support:support-core-utils:26.1.0] C:\Users\administator\.gradle\caches\transforms-1\files-1.1\support-core-utils-26.1.0.aar\4c9750116958b0fa951922aee220f9e6\AndroidManifest.xml:21:5-23:61
MERGED from [com.android.support:support-core-utils:26.1.0] C:\Users\administator\.gradle\caches\transforms-1\files-1.1\support-core-utils-26.1.0.aar\4c9750116958b0fa951922aee220f9e6\AndroidManifest.xml:21:5-23:61
MERGED from [com.android.support:support-core-ui:26.1.0] C:\Users\administator\.gradle\caches\transforms-1\files-1.1\support-core-ui-26.1.0.aar\7c575f8c60e56ddcf2a6debff41fe289\AndroidManifest.xml:21:5-23:58
MERGED from [com.android.support:support-core-ui:26.1.0] C:\Users\administator\.gradle\caches\transforms-1\files-1.1\support-core-ui-26.1.0.aar\7c575f8c60e56ddcf2a6debff41fe289\AndroidManifest.xml:21:5-23:58
MERGED from [com.android.support:support-compat:26.1.0] C:\Users\administator\.gradle\caches\transforms-1\files-1.1\support-compat-26.1.0.aar\da5d8dbb046093bedc9f0190962d5065\AndroidManifest.xml:21:5-23:58
MERGED from [com.android.support:support-compat:26.1.0] C:\Users\administator\.gradle\caches\transforms-1\files-1.1\support-compat-26.1.0.aar\da5d8dbb046093bedc9f0190962d5065\AndroidManifest.xml:21:5-23:58
MERGED from [com.google.android.gms:play-services-wearable-license:11.8.0] C:\Users\administator\.gradle\caches\transforms-1\files-1.1\play-services-wearable-license-11.8.0.aar\d3077d2f038cc962d3cdb4096b50b854\AndroidManifest.xml:4:5-43
MERGED from [com.google.android.gms:play-services-wearable-license:11.8.0] C:\Users\administator\.gradle\caches\transforms-1\files-1.1\play-services-wearable-license-11.8.0.aar\d3077d2f038cc962d3cdb4096b50b854\AndroidManifest.xml:4:5-43
MERGED from [com.google.android.gms:play-services-base-license:11.8.0] C:\Users\administator\.gradle\caches\transforms-1\files-1.1\play-services-base-license-11.8.0.aar\4bd4a1666fb94319a5de893e4df0b9b2\AndroidManifest.xml:4:5-43
MERGED from [com.google.android.gms:play-services-base-license:11.8.0] C:\Users\administator\.gradle\caches\transforms-1\files-1.1\play-services-base-license-11.8.0.aar\4bd4a1666fb94319a5de893e4df0b9b2\AndroidManifest.xml:4:5-43
MERGED from [com.google.android.gms:play-services-basement-license:11.8.0] C:\Users\administator\.gradle\caches\transforms-1\files-1.1\play-services-basement-license-11.8.0.aar\d2ae34d9db1e45290e09f1fb69c22ced\AndroidManifest.xml:4:5-43
MERGED from [com.google.android.gms:play-services-basement-license:11.8.0] C:\Users\administator\.gradle\caches\transforms-1\files-1.1\play-services-basement-license-11.8.0.aar\d2ae34d9db1e45290e09f1fb69c22ced\AndroidManifest.xml:4:5-43
MERGED from [com.google.android.gms:play-services-tasks-license:11.8.0] C:\Users\administator\.gradle\caches\transforms-1\files-1.1\play-services-tasks-license-11.8.0.aar\84c513587f05c0843f37206a50c6e7bd\AndroidManifest.xml:4:5-43
MERGED from [com.google.android.gms:play-services-tasks-license:11.8.0] C:\Users\administator\.gradle\caches\transforms-1\files-1.1\play-services-tasks-license-11.8.0.aar\84c513587f05c0843f37206a50c6e7bd\AndroidManifest.xml:4:5-43
MERGED from [android.arch.lifecycle:runtime:1.0.0] C:\Users\administator\.gradle\caches\transforms-1\files-1.1\runtime-1.0.0.aar\a4d2101543e0a825f3d8a9e723300938\AndroidManifest.xml:20:5-22:41
MERGED from [android.arch.lifecycle:runtime:1.0.0] C:\Users\administator\.gradle\caches\transforms-1\files-1.1\runtime-1.0.0.aar\a4d2101543e0a825f3d8a9e723300938\AndroidManifest.xml:20:5-22:41
INJECTED from D:\AndroidStudioProjects\activitychallenge\wear\src\main\AndroidManifest.xml
INJECTED from D:\AndroidStudioProjects\activitychallenge\wear\src\main\AndroidManifest.xml
	tools:overrideLibrary
		ADDED from [com.android.support:support-v4:26.1.0] C:\Users\administator\.gradle\caches\transforms-1\files-1.1\support-v4-26.1.0.aar\4e5c151bffd246f71aedc58045a69e8d\AndroidManifest.xml:23:9-51
	android:targetSdkVersion
		INJECTED from D:\AndroidStudioProjects\activitychallenge\wear\src\main\AndroidManifest.xml
		ADDED from D:\AndroidStudioProjects\activitychallenge\wear\src\main\AndroidManifest.xml
		INJECTED from D:\AndroidStudioProjects\activitychallenge\wear\src\main\AndroidManifest.xml
	android:minSdkVersion
		INJECTED from D:\AndroidStudioProjects\activitychallenge\wear\src\main\AndroidManifest.xml
		ADDED from D:\AndroidStudioProjects\activitychallenge\wear\src\main\AndroidManifest.xml
		INJECTED from D:\AndroidStudioProjects\activitychallenge\wear\src\main\AndroidManifest.xml
uses-library#com.google.android.wearable
ADDED from [com.google.android.support:wearable:2.1.0] C:\Users\administator\.gradle\caches\transforms-1\files-1.1\wearable-2.1.0.aar\49e49044fc4b8eb4a9dcc3f5f9608255\AndroidManifest.xml:10:9-12:40
	android:required
		ADDED from [com.google.android.support:wearable:2.1.0] C:\Users\administator\.gradle\caches\transforms-1\files-1.1\wearable-2.1.0.aar\49e49044fc4b8eb4a9dcc3f5f9608255\AndroidManifest.xml:12:13-37
	android:name
		ADDED from [com.google.android.support:wearable:2.1.0] C:\Users\administator\.gradle\caches\transforms-1\files-1.1\wearable-2.1.0.aar\49e49044fc4b8eb4a9dcc3f5f9608255\AndroidManifest.xml:11:13-55
meta-data#android.support.VERSION
ADDED from [com.android.support:percent:26.1.0] C:\Users\administator\.gradle\caches\transforms-1\files-1.1\percent-26.1.0.aar\19def665ef15d289553e6448d68f02e7\AndroidManifest.xml:23:9-25:38
MERGED from [com.android.support:support-v4:26.1.0] C:\Users\administator\.gradle\caches\transforms-1\files-1.1\support-v4-26.1.0.aar\4e5c151bffd246f71aedc58045a69e8d\AndroidManifest.xml:26:9-28:38
MERGED from [com.android.support:support-v4:26.1.0] C:\Users\administator\.gradle\caches\transforms-1\files-1.1\support-v4-26.1.0.aar\4e5c151bffd246f71aedc58045a69e8d\AndroidManifest.xml:26:9-28:38
MERGED from [com.android.support:recyclerview-v7:26.1.0] C:\Users\administator\.gradle\caches\transforms-1\files-1.1\recyclerview-v7-26.1.0.aar\0d45e42c0db244dadff840e070e99dad\AndroidManifest.xml:23:9-25:38
MERGED from [com.android.support:recyclerview-v7:26.1.0] C:\Users\administator\.gradle\caches\transforms-1\files-1.1\recyclerview-v7-26.1.0.aar\0d45e42c0db244dadff840e070e99dad\AndroidManifest.xml:23:9-25:38
MERGED from [com.android.support:support-media-compat:26.1.0] C:\Users\administator\.gradle\caches\transforms-1\files-1.1\support-media-compat-26.1.0.aar\c47d4ec78164e1356a95b1793ca9c164\AndroidManifest.xml:26:9-28:38
MERGED from [com.android.support:support-media-compat:26.1.0] C:\Users\administator\.gradle\caches\transforms-1\files-1.1\support-media-compat-26.1.0.aar\c47d4ec78164e1356a95b1793ca9c164\AndroidManifest.xml:26:9-28:38
MERGED from [com.android.support:support-fragment:26.1.0] C:\Users\administator\.gradle\caches\transforms-1\files-1.1\support-fragment-26.1.0.aar\1e52a760e910927a8df52816002a640d\AndroidManifest.xml:26:9-28:38
MERGED from [com.android.support:support-fragment:26.1.0] C:\Users\administator\.gradle\caches\transforms-1\files-1.1\support-fragment-26.1.0.aar\1e52a760e910927a8df52816002a640d\AndroidManifest.xml:26:9-28:38
MERGED from [com.android.support:support-core-utils:26.1.0] C:\Users\administator\.gradle\caches\transforms-1\files-1.1\support-core-utils-26.1.0.aar\4c9750116958b0fa951922aee220f9e6\AndroidManifest.xml:26:9-28:38
MERGED from [com.android.support:support-core-utils:26.1.0] C:\Users\administator\.gradle\caches\transforms-1\files-1.1\support-core-utils-26.1.0.aar\4c9750116958b0fa951922aee220f9e6\AndroidManifest.xml:26:9-28:38
MERGED from [com.android.support:support-core-ui:26.1.0] C:\Users\administator\.gradle\caches\transforms-1\files-1.1\support-core-ui-26.1.0.aar\7c575f8c60e56ddcf2a6debff41fe289\AndroidManifest.xml:26:9-28:38
MERGED from [com.android.support:support-core-ui:26.1.0] C:\Users\administator\.gradle\caches\transforms-1\files-1.1\support-core-ui-26.1.0.aar\7c575f8c60e56ddcf2a6debff41fe289\AndroidManifest.xml:26:9-28:38
MERGED from [com.android.support:support-compat:26.1.0] C:\Users\administator\.gradle\caches\transforms-1\files-1.1\support-compat-26.1.0.aar\da5d8dbb046093bedc9f0190962d5065\AndroidManifest.xml:26:9-28:38
MERGED from [com.android.support:support-compat:26.1.0] C:\Users\administator\.gradle\caches\transforms-1\files-1.1\support-compat-26.1.0.aar\da5d8dbb046093bedc9f0190962d5065\AndroidManifest.xml:26:9-28:38
	android:value
		ADDED from [com.android.support:percent:26.1.0] C:\Users\administator\.gradle\caches\transforms-1\files-1.1\percent-26.1.0.aar\19def665ef15d289553e6448d68f02e7\AndroidManifest.xml:25:13-35
	android:name
		ADDED from [com.android.support:percent:26.1.0] C:\Users\administator\.gradle\caches\transforms-1\files-1.1\percent-26.1.0.aar\19def665ef15d289553e6448d68f02e7\AndroidManifest.xml:24:13-51
activity#com.google.android.gms.common.api.GoogleApiActivity
ADDED from [com.google.android.gms:play-services-base:11.8.0] C:\Users\administator\.gradle\caches\transforms-1\files-1.1\play-services-base-11.8.0.aar\692ed1e308135aa6452b864be95456f9\AndroidManifest.xml:23:9-26:75
	android:exported
		ADDED from [com.google.android.gms:play-services-base:11.8.0] C:\Users\administator\.gradle\caches\transforms-1\files-1.1\play-services-base-11.8.0.aar\692ed1e308135aa6452b864be95456f9\AndroidManifest.xml:25:13-37
	android:theme
		ADDED from [com.google.android.gms:play-services-base:11.8.0] C:\Users\administator\.gradle\caches\transforms-1\files-1.1\play-services-base-11.8.0.aar\692ed1e308135aa6452b864be95456f9\AndroidManifest.xml:26:13-72
	android:name
		ADDED from [com.google.android.gms:play-services-base:11.8.0] C:\Users\administator\.gradle\caches\transforms-1\files-1.1\play-services-base-11.8.0.aar\692ed1e308135aa6452b864be95456f9\AndroidManifest.xml:24:13-79
meta-data#com.google.android.gms.version
ADDED from [com.google.android.gms:play-services-basement:11.8.0] C:\Users\administator\.gradle\caches\transforms-1\files-1.1\play-services-basement-11.8.0.aar\b10938a533c74afb2f29764e3db66ba0\AndroidManifest.xml:23:9-25:69
	android:value
		ADDED from [com.google.android.gms:play-services-basement:11.8.0] C:\Users\administator\.gradle\caches\transforms-1\files-1.1\play-services-basement-11.8.0.aar\b10938a533c74afb2f29764e3db66ba0\AndroidManifest.xml:25:13-66
	android:name
		ADDED from [com.google.android.gms:play-services-basement:11.8.0] C:\Users\administator\.gradle\caches\transforms-1\files-1.1\play-services-basement-11.8.0.aar\b10938a533c74afb2f29764e3db66ba0\AndroidManifest.xml:24:13-58
meta-data#android.arch.lifecycle.VERSION
ADDED from [android.arch.lifecycle:runtime:1.0.0] C:\Users\administator\.gradle\caches\transforms-1\files-1.1\runtime-1.0.0.aar\a4d2101543e0a825f3d8a9e723300938\AndroidManifest.xml:25:9-27:47
	android:value
		ADDED from [android.arch.lifecycle:runtime:1.0.0] C:\Users\administator\.gradle\caches\transforms-1\files-1.1\runtime-1.0.0.aar\a4d2101543e0a825f3d8a9e723300938\AndroidManifest.xml:27:13-44
	android:name
		ADDED from [android.arch.lifecycle:runtime:1.0.0] C:\Users\administator\.gradle\caches\transforms-1\files-1.1\runtime-1.0.0.aar\a4d2101543e0a825f3d8a9e723300938\AndroidManifest.xml:26:13-58
